<?xml version="1.0" standalone="no"?>
<svg width="1500px" height="1500px" version="1.1" xmlns="http://www.w3.org/2000/svg">
    <path transform="scale(1, -1) translate(0, -1500)" glyph-name="guillemotleft" unicode="&#xab;" horiz-adv-x="512" 
</svg>